﻿{
  "profiles": [
    {
      "projectName": "WebApi 2",
      "destination": [
        "E:\\Deployments\\RFC_01_LIVE",
        "E:\\Deployments\\RFC_01_TEST"
      ]
    },
    {
      "projectName": "Temp",
      "destination": [
        "E:\\Deployments\\RFC_02_TEMP"
      ]
    }
  ]
}
